﻿declare @s varchar(max);
set @s = 'STATS: Type, Count';
select @s = @s + '
' + ltrim(str(Type)) + ': ' + ltrim(str(Cnt)) + ''
from
(select Type, count(*) Cnt from Transacts where DtTransact>=datefromparts(year(getdate() - 3), 1, 1) group by Type) x
print @s;

STATS: Type, Count
1: 43685
2: 113476
3: 3356
4: 1899
6: 130
8: 647
9: 1598
10: 7
11: 2304
12: 42
13: 8633
14: 303
15: 13
20: 634
30: 92888
31: 295
50: 2596
51: 19826
53: 83
54: 83
58: 3950
59: 3
61: 1168
62: 8675
63: 7890
67: 6868
68: 2
69: 3494
70: 2261
77: 4
79: 102
80: 79083
81: 19
83: 426
87: 17
88: 65
89: 8488
90: 1
94: 11
100: 678
101: 739
256: 1
263: 974
264: 1
266: 108
267: 193
268: 487
269: 760
270: 5268
271: 1891
279: 433
280: 287
281: 509
282: 144
283: 1872
284: 358
285: 54
286: 55
287: 5
288: 2
291: 10
294: 6
296: 24
298: 172
299: 19
300: 17
312: 838
313: 9
314: 949
315: 457
316: 2
317: 304
318: 2
319: 40
320: 1
321: 2
322: 2
323: 1
324: 236
325: 44
326: 4
331: 30
332: 1
335: 3
337: 1006
338: 8
339: 9
340: 1
342: 2
345: 5
348: 1
349: 8
352: 21
353: 248
356: 7
357: 2
358: 12
359: 13
371: 174
372: 7
373: 1
381: 4
382: 4
385: 18
386: 1
387: 69
388: 56
389: 47
390: 42
391: 9
392: 116
427: 8
433: 79
434: 3
